…
``` r
b = rcorr(as.matrix(data))
tidy(b)
```

    ## # A tibble: 406 x 5
    ##    column1    column2 estimate     n      p.value
    ##    <chr>      <chr>      <dbl> <int>        <dbl>
    ##  1 fish       meat      0.191   2390 0           
    ##  2 eggs       meat      0.383   2390 0           
    ##  3 eggs       fish      0.116   2390 0.0000000131
    ##  4 milk       meat      0.400   2390 0           
    ##  5 milk       fish      0.178   2390 0           
    ##  6 milk       eggs      0.318   2390 0           
    ##  7 vegetables meat      0.109   2390 0.0000000937
    ##  8 vegetables fish      0.0300  2390 0.143       
    ##  9 vegetables eggs      0.0815  2390 0.0000670   
    ## 10 vegetables milk      0.0741  2390 0.000286    
    ## # ... with 396 more rows
…
